ALL_APC;heatsinks;0
CL_AresPrime;heatsinks;3 DHS
CL_AresA;heatsinks;0
CL_AresB;heatsinks;4 DHS
CL_AresC;heatsinks;3 DHS
CL_AresD;heatsinks;0
CL_AresE;heatsinks;0
CL_BlacklannerPrime;heatsinks;4 DHS
CL_BlacklannerA;heatsinks;4 DHS
CL_BlacklannerB;heatsinks;5 DHS
CL_BlacklannerC;heatsinks;4 DHS
CL_BlacklannerD;heatsinks;3 DHS
CL_BlacklannerE;heatsinks;2 DHS
CL_BloodAspPrime;heatsinks;6 DHS
CL_BloodAspA;heatsinks;18 DHS
CL_BloodAspB;heatsinks;7 DHS
CL_BloodAspC;heatsinks;8 DHS
CL_BloodAspD;heatsinks;11 DHS
CL_BloodAspE;heatsinks;9 DHS
CL_BloodAspF;heatsinks;14 DHS
CL_BloodAspG;heatsinks;6 DHS
CL_CougarPrime;heatsinks;3 DHS
CL_CougarA;heatsinks;0
CL_CougarB;heatsinks;5 DHS
CL_CougarC;heatsinks;2 DHS
CL_CougarD;heatsinks;2 DHS
CL_CougarE;heatsinks;2 DHS
CL_CougarF;heatsinks;5 DHS
CL_CougarG;heatsinks;4 DHS
CL_DaishiPrime;heatsinks;14 DHS
CL_DaishiA;heatsinks;14 DHS
CL_DaishiB;heatsinks;15 DHS
CL_DaishiC;heatsinks;6 DHS
CL_DaishiD;heatsinks;6 DHS
CL_DaishiE;heatsinks;16 DHS
CL_DaishiF;heatsinks;11 DHS
CL_DaishiG;heatsinks;5 DHS
CL_DonarPrime;heatsinks;0
CL_DonarA;heatsinks;0
CL_DonarB;heatsinks;0
CL_DonarC;heatsinks;0
CL_DonarD;heatsinks;3 DHS
CL_DonarE;heatsinks;4 DHS
CL_DonarF;heatsinks;1 DHS
CL_DonarG;heatsinks;0
CL_EponaPrime;heatsinks;5 DHS
CL_EponaA;heatsinks;0
CL_EponaB;heatsinks;4 DHS
CL_EponaC;heatsinks;3 DHS
CL_EponaD;heatsinks;7 DHS
CL_EponaE;heatsinks;0
CL_HephaestusPrime;heatsinks;1 DHS
CL_HephaestusA;heatsinks;0
CL_HephaestusB;heatsinks;0
CL_HephaestusC;heatsinks;0
CL_HephaestusD;heatsinks;0
CL_HephaestusE;heatsinks;0
CL_HephaestusF;heatsinks;0
CL_HephaestusG;heatsinks;0
CL_HuitzilopochtliPrime;heatsinks;1 HS
CL_HuitzilopochtliA;heatsinks;6 HS
CL_HuitzilopochtliB;heatsinks;22 HS
CL_HuitzilopochtliC;heatsinks;14 HS
CL_HuitzilopochtliD;heatsinks;2 HS
CL_HuitzilopochtliE;heatsinks;10 HS
CL_LokiPrime;heatsinks;7 DHS
CL_LokiA;heatsinks;3 DHS
CL_LokiB;heatsinks;11 DHS
CL_LokiC;heatsinks;2 DHS
CL_LokiD;heatsinks;9 DHS
CL_LokiE;heatsinks;1 DHS
CL_LokiF;heatsinks;6 DHS
CL_LokiG;heatsinks;1 DHS
CL_MKIIPrime;heatsinks;2 DHS
CL_MKIIA;heatsinks;2 DHS
CL_MKIIB;heatsinks;4 DHS
CL_MKIIC;heatsinks;6 DHS
CL_MKIID;heatsinks;6 DHS
CL_MKIIE;heatsinks;2 DHS
CL_MKIIF;heatsinks;14 DHS
CL_MKIIG;heatsinks;6 DHS
CL_MadcatPrime;heatsinks;10 DHS
CL_MadcatA;heatsinks;5 DHS
CL_MadcatB;heatsinks;9 DHS
CL_MadcatC;heatsinks;12 DHS
CL_MadcatD;heatsinks;14 DHS
CL_MadcatE;heatsinks;7 DHS
CL_MadcatF;heatsinks;6 DHS
CL_MadcatG;heatsinks;4 DHS
CL_MasakariPrime;heatsinks;13 DHS
CL_MasakariA;heatsinks;7 DHS
CL_MasakariB;heatsinks;11 DHS
CL_MasakariC;heatsinks;8 DHS
CL_MasakariD;heatsinks;9 DHS
CL_MasakariE;heatsinks;9 DHS
CL_MasakariF;heatsinks;8 DHS
CL_MasakariG;heatsinks;5 DHS
CL_MorriguPrime;heatsinks;12 DHS
CL_MorriguA;heatsinks;13 DHS
CL_MorriguB;heatsinks;22 DHS
CL_MorriguC;heatsinks;14 DHS
CL_MorriguD;heatsinks;0
CL_MorriguE;heatsinks;0
CL_NovacatPrime;heatsinks;13 DHS
CL_NovacatA;heatsinks;13 DHS
CL_NovacatB;heatsinks;13 DHS
CL_NovacatC;heatsinks;5 DHS
CL_NovacatD;heatsinks;17 DHS
CL_NovacatE;heatsinks;7 DHS
CL_OroPrime;heatsinks;4 DHS
CL_OroA;heatsinks;4 DHS
CL_OroB;heatsinks;3 DHS
CL_OroC;heatsinks;0
CL_OroD;heatsinks;6 DHS
CL_OroE;heatsinks;8 DHS
CL_PumaPrime;heatsinks;5 DHS
CL_PumaA;heatsinks;2 DHS
CL_PumaB;heatsinks;0
CL_PumaC;heatsinks;4 DHS
CL_PumaD;heatsinks;7 DHS
CL_PumaE;heatsinks;1 DHS
CL_ShadowcatPrime;heatsinks;1 DHS
CL_ShadowcatA;heatsinks;1 DHS
CL_ShadowcatB;heatsinks;1 DHS
CL_ShadowcatC;heatsinks;1 DHS
CL_ShadowcatD;heatsinks;4 DHS
CL_ShadowcatE;heatsinks;6 DHS
CL_ShadowcatF;heatsinks;0
CL_ShadowcatG;heatsinks;3 DHS
CL_SolitairePrime;heatsinks;4 DHS
CL_SolitaireA;heatsinks;4 DHS
CL_SolitaireB;heatsinks;2 DHS
CL_SolitaireC;heatsinks;1 DHS
CL_SolitaireD;heatsinks;0
CL_SolitaireE;heatsinks;3 DHS
CL_SolitaireF;heatsinks;3 DHS
CL_SolitaireG;heatsinks;0
CL_RyokenPrime;heatsinks;12 DHS
CL_RyokenA;heatsinks;5 DHS
CL_RyokenB;heatsinks;4 DHS
CL_RyokenC;heatsinks;3 DHS
CL_RyokenD;heatsinks;5 DHS
CL_RyokenE;heatsinks;5 DHS
CL_SullaPrime;heatsinks;6 DHS
CL_SullaA;heatsinks;5 DHS
CL_SullaB;heatsinks;0
CL_SullaC;heatsinks;0
CL_SullaD;heatsinks;0
CL_SullaE;heatsinks;1 DHS
CL_SullaF;heatsinks;1 DHS
CL_SullaG;heatsinks;0
CL_SullaH;heatsinks;2 DHS
CL_SullaI;heatsinks;2 DHS
CL_ThorPrime;heatsinks;6 DHS
CL_ThorA;heatsinks;4 DHS
CL_ThorB;heatsinks;5 DHS
CL_ThorC;heatsinks;9 DHS
CL_ThorD;heatsinks;6 DHS
CL_ThorE;heatsinks;8 DHS
CL_ThorF;heatsinks;6 DHS
CL_ThorG;heatsinks;9 DHS
CL_UllerPrime;heatsinks;1 DHS
CL_UllerA;heatsinks;0
CL_UllerB;heatsinks;0
CL_UllerC;heatsinks;4 DHS
CL_UllerD;heatsinks;2 DHS
CL_UllerE;heatsinks;0
CL_UllerF;heatsinks;1 DHS
CL_UllerG;heatsinks;0
CL_VisigothPrime;heatsinks;4 DHS
CL_VisigothA;heatsinks;2 DHS
CL_VisigothB;heatsinks;0
CL_VisigothC;heatsinks;1 DHS
CL_VisigothD;heatsinks;1 DHS
CL_VisigothE;heatsinks;0
CL_VisigothF;heatsinks;10 DHS
CL_VisigothG;heatsinks;2 DHS
CL_VisigothH;heatsinks;0
CL_VisigothI;heatsinks;6 DHS
CL_VulturePrime;heatsinks;5 DHS
CL_VultureA;heatsinks;0
CL_VultureB;heatsinks;2 DHS
CL_VultureC;heatsinks;3 DHS
CL_VultureD;heatsinks;5 DHS
CL_VultureE;heatsinks;7 DHS
CL_VultureF;heatsinks;3 DHS
CL_VultureG;heatsinks;1 DHS
IS_AtlasPrime;heatsinks;4 DHS
IS_AtlasA;heatsinks;2 DHS
IS_AtlasB;heatsinks;4 DHS
IS_AtlasC;heatsinks;4 DHS
IS_AtlasD;heatsinks;5 HS
IS_AtlasE;heatsinks;4 DHS
IS_AvatarPrime;heatsinks;3 DHS
IS_AvatarA;heatsinks;3 DHS
IS_AvatarB;heatsinks;11 DHS
IS_AvatarC;heatsinks;1 DHS
IS_AvatarD;heatsinks;2 DHS
IS_AvatarE;heatsinks;5 DHS
IS_AvatarF;heatsinks;3 DHS
IS_AvatarG;heatsinks;5 DHS
IS_AwesomePrime;heatsinks;14 HS
IS_AwesomeA;heatsinks;11 DHS
IS_AwesomeB;heatsinks;5 DHS
IS_AwesomeC;heatsinks;15 HS
IS_AwesomeD;heatsinks;15 DHS
IS_AwesomeE;heatsinks;4 DHS
IS_BushwackerPrime;heatsinks;0
IS_BushwackerA;heatsinks;0
IS_BushwackerB;heatsinks;0
IS_BushwackerC;heatsinks;1 DHS
IS_BushwackerD;heatsinks;7 DHS
IS_BushwackerE;heatsinks;0
IS_BushwackerF;heatsinks;2 DHS
IS_BushwackerG;heatsinks;1 DHS
IS_CatapultPrime;heatsinks;4 HS
IS_CatapultA;heatsinks;10 HS
IS_CatapultB;heatsinks;6 HS
IS_CatapultC;heatsinks;3 DHS
IS_CatapultD;heatsinks;6 DHS
IS_CatapultE;heatsinks;4 HS
IS_ChevalierPrime;heatsinks;1 DHS
IS_ChevalierA;heatsinks;2 DHS
IS_ChevalierB;heatsinks;0
IS_ChevalierC;heatsinks;1 HS
IS_ChevalierD;heatsinks;2 DHS
IS_ChevalierE;heatsinks;0
IS_ChimeraPrime;heatsinks;1 DHS
IS_ChimeraA;heatsinks;1 DHS
IS_ChimeraB;heatsinks;1 DHS
IS_ChimeraC;heatsinks;1 DHS
IS_ChimeraD;heatsinks;0
IS_ChimeraE;heatsinks;3 DHS
IS_CorsairPrime;heatsinks;6 HS
IS_CorsairA;heatsinks;0
IS_CorsairB;heatsinks;0
IS_CorsairC;heatsinks;0
IS_CorsairD;heatsinks;1 DHS
IS_CorsairE;heatsinks;0
IS_CorsairF;heatsinks;0
IS_CorsairG;heatsinks;0
IS_CorsairH;heatsinks;3 DHS
IS_CorsairI;heatsinks;0
IS_DemolisherPrime;heatsinks;0
IS_DemolisherA;heatsinks;0
IS_DemolisherB;heatsinks;0
IS_DemolisherC;heatsinks;1 HS
IS_DemolisherD;heatsinks;0
IS_DemolisherE;heatsinks;0
IS_FafnirPrime;heatsinks;2 DHS
IS_FafnirA;heatsinks;2 DHS
IS_FafnirB;heatsinks;2 DHS
IS_FafnirC;heatsinks;1 DHS
IS_FafnirD;heatsinks;4 DHS
IS_FafnirE;heatsinks;1 DHS
IS_FafnirF;heatsinks;8 DHS
IS_FafnirG;heatsinks;0
IS_HarasserPrime;heatsinks;0
IS_HarasserA;heatsinks;0
IS_HarasserB;heatsinks;5 HS
IS_HarasserC;heatsinks;4 HS
IS_HarasserD;heatsinks;6 HS
IS_HarasserE;heatsinks;0
IS_HarasserF;heatsinks;0
IS_HarasserG;heatsinks;1 DHS
IS_HawkmothPrime;heatsinks;0
IS_HawkmothA;heatsinks;0
IS_HawkmothB;heatsinks;0
IS_HawkmothC;heatsinks;0
IS_HawkmothE;heatsinks;0
IS_HawkmothF;heatsinks;0
IS_HawkmothG;heatsinks;0
IS_HawkmothD;heatsinks;0
IS_HollanderPrime;heatsinks;2 HS
IS_HollanderA;heatsinks;0
IS_HollanderB;heatsinks;2 HS
IS_HollanderC;heatsinks;0
IS_HollanderD;heatsinks;0
IS_HollanderE;heatsinks;0
IS_LongTom;heatsinks;0
IS_MaulerPrime;heatsinks;4 DHS
IS_MaulerA;heatsinks;2 HS
IS_MaulerB;heatsinks;3 DHS
IS_MaulerC;heatsinks;6 DHS
IS_MaulerD;heatsinks;5 DHS
IS_MaulerE;heatsinks;0
IS_MaulerF;heatsinks;2 HS
IS_MaulerG;heatsinks;4 DHS
IS_OsirisPrime;heatsinks;2 DHS
IS_OsirisA;heatsinks;3 DHS
IS_OsirisB;heatsinks;0
IS_OsirisC;heatsinks;2 DHS
IS_OsirisD;heatsinks;3 DHS
IS_OsirisE;heatsinks;0
IS_OwensPrime;heatsinks;1 HS
IS_OwensA;heatsinks;1 HS
IS_OwensB;heatsinks;1 HS
IS_OwensC;heatsinks;3 HS
IS_OwensD;heatsinks;2 HS
IS_OwensE;heatsinks;1 HS
IS_OwensF;heatsinks;3 HS
IS_OwensG;heatsinks;0
IS_PartisanPrime;heatsinks;0
IS_PartisanA;heatsinks;0
IS_PartisanB;heatsinks;1 DHS
IS_PartisanC;heatsinks;0
IS_PartisanD;heatsinks;0
IS_PartisanE;heatsinks;0
IS_RavenPrime;heatsinks;0
IS_RavenA;heatsinks;3 DHS
IS_RavenB;heatsinks;0
IS_RavenC;heatsinks;2 DHS
IS_RavenD;heatsinks;2 DHS
IS_RavenE;heatsinks;2 DHS
IS_RiflemanPrime;heatsinks;4 HS
IS_RiflemanA;heatsinks;0
IS_RiflemanB;heatsinks;0
IS_RiflemanC;heatsinks;2 HS
IS_RiflemanD;heatsinks;3 DHS
IS_RiflemanE;heatsinks;11 DHS
IS_ShivaPrime;heatsinks;9 DHS
IS_ShivaA;heatsinks;2 DHS
IS_ShivaB;heatsinks;7 DHS
IS_ShivaC;heatsinks;0
IS_ShivaD;heatsinks;4 DHS
IS_ShivaE;heatsinks;1 DHS
IS_ShivaF;heatsinks;1 DHS
IS_ShivaG;heatsinks;3 DHS
IS_ShivaH;heatsinks;1 DHS
IS_ShivaI;heatsinks;0
IS_SparrowHawkPrime;heatsinks;2 DHS
IS_SparrowHawkA;heatsinks;0
IS_SparrowHawkB;heatsinks;0
IS_SparrowHawkC;heatsinks;0
IS_SparrowHawkD;heatsinks;2 DHS
IS_SparrowHawkE;heatsinks;0
IS_SparrowHawkF;heatsinks;0
IS_SparrowHawkG;heatsinks;0
IS_ThanatosPrime;heatsinks;6 DHS
IS_ThanatosA;heatsinks;2 DHS
IS_ThanatosB;heatsinks;3 DHS
IS_ThanatosC;heatsinks;3 DHS
IS_ThanatosD;heatsinks;3 DHS
IS_ThanatosE;heatsinks;4 DHS
IS_ThanatosF;heatsinks;2 DHS
IS_ThanatosG;heatsinks;5 DHS
IS_UzielPrime;heatsinks;4 DHS
IS_UzielA;heatsinks;1 HS
IS_UzielB;heatsinks;1 DHS
IS_UzielC;heatsinks;6 DHS
IS_UzielD;heatsinks;5 DHS
IS_UzielE;heatsinks;6 DHS
IS_WarhammerPrime;heatsinks;10 HS
IS_WarhammerA;heatsinks;0
IS_WarhammerB;heatsinks;0
IS_WarhammerC;heatsinks;0
IS_WarhammerD;heatsinks;0
IS_WarhammerE;heatsinks;3 DHS
IS_WarhammerF;heatsinks;0
IS_WarhammerG;heatsinks;1 HS
