ALL_APC;weapons_short;2 Mgun
CL_AresPrime;weapons_short;1 CERLBL, 2 CLRM15
CL_AresA;weapons_short;1 CUAC5, 4 CLBX2
CL_AresB;weapons_short;1 CHLL, 2 CSSRM6
CL_AresC;weapons_short;1 CERPPC, 2 ATM6
CL_AresD;weapons_short;1 CLPL, 2 CUAC5
CL_AresE;weapons_short;1 CUAC10, 2 CSRM6
CL_BlacklannerPrime;weapons_short;1 CSRM6, 1 CLRM10, 1 CERLBL, 2 CERMBL
CL_BlacklannerA;weapons_short;2 CLRM10, 3 CSPL, 1 CERPPC
CL_BlacklannerB;weapons_short;6 CERSBL, 1 TAG, 1 CDSRM4, 1 CHLL
CL_BlacklannerC;weapons_short;1 CDSSRM4, 1 CERLBL, 2 CHML
CL_BlacklannerD;weapons_short;4 CHSL, 1 cNARC, 1 CLRM10, 1 CLPL
CL_BlacklannerE;weapons_short;1 ATM9, 3 CERSBL, 1 CLBX10
CL_BloodAspPrime;weapons_short;2 CMPL, 2 CGauss, 4 CHML, 1 CSRM4
CL_BloodAspA;weapons_short;4 CERMBL, 2 CERPPC, 2 CERLBL
CL_BloodAspB;weapons_short;6 CERMBL, 2 CLBX10, 1 CLRM15
CL_BloodAspC;weapons_short;6 CERSBL, 2 CUAC10, 2 CERLBL, 1 CSRM4
CL_BloodAspD;weapons_short;4 CERMBL, 1 CERPPC, 1 CGauss, 4 CERSBL, 1 CSRM6
CL_BloodAspE;weapons_short;4 Mgun, 2 CGauss, 2 CHLL
CL_BloodAspF;weapons_short;2 CUAC5, 2 CLPL, 4 CERMBL
CL_BloodAspG;weapons_short;2 CLBX20, 6 CHSL, 1 CSRM6
CL_CougarPrime;weapons_short;2 CLRM10, 2 CLPL
CL_CougarA;weapons_short;4 CLRM10, 1 CHSL
CL_CougarB;weapons_short;1 TAG, 1 CERPPC, 2 CERMBL
CL_CougarC;weapons_short;2 CLRM10, 1 cNARC, 1 CERMBL, 1 CERLBL
CL_CougarD;weapons_short;2 CDSSRM4, 2 CHML
CL_CougarE;weapons_short;2 ATM6, 3 CERMBL
CL_CougarF;weapons_short;2 CDSRM4, 5 CSPL
CL_CougarG;weapons_short;2 CLRM10, 2 CERLBL
CL_DaishiPrime;weapons_short;4 CMPL, 4 CERLBL, 2 CUAC5, 1 CLRM10
CL_DaishiA;weapons_short;2 CSRM6, 3 CLPL, 2 CERMBL, 1 CGauss
CL_DaishiB;weapons_short;4 CERMBL, 2 CERPPC, 4 CERSBL, 1 CUAC20
CL_DaishiC;weapons_short;4 CUAC2, 2 CERPPC, 1 CArrowIV
CL_DaishiD;weapons_short;5 CUAC5, 5 CERMBL
CL_DaishiE;weapons_short;5 CHML, 2 CLRM10, 2 CERLBL, 1 CLRM15
CL_DaishiF;weapons_short;3 CERLBL, 2 ATM9, 4 CERSBL, 1 CGauss
CL_DaishiG;weapons_short;3 CDSRM4, 1 CUAC20, 2 CUAC10, 4 Mgun
CL_DonarPrime;weapons_short;2 CSSRM4, 1 CERLBL
CL_DonarA;weapons_short;2 ATM6, 1 cNARC
CL_DonarB;weapons_short;1 CUAC5, 2 Mgun, 1 TAG
CL_DonarC;weapons_short;1 CLBX10, 4 Mgun
CL_DonarD;weapons_short;1 CERPPC, 2 CERMBL
CL_DonarE;weapons_short;1 CHLL, 6 CERSBL
CL_DonarF;weapons_short;3 CERMBL, 2 CLBX2
CL_DonarG;weapons_short;1 CUAC10, 2 CERSBL
CL_EponaPrime;weapons_short;1 CSSRM4, 4 CMPL
CL_EponaA;weapons_short;4 CLRM10
CL_EponaB;weapons_short;1 CERPPC, 2 CERMBL, 2 CSPL
CL_EponaC;weapons_short;1 ATM6, 4 CERMBL
CL_EponaD;weapons_short;3 CHML, 2 CHSL
CL_EponaE;weapons_short;1 ATM6, 1 CLBX10, 4 Mgun
CL_HephaestusPrime;weapons_short;2 CMPL, 2 CSPL
CL_HephaestusA;weapons_short;3 CLBX2, 1 CDSRM4
CL_HephaestusB;weapons_short;2 CERMBL, 1 CDSSRM4
CL_HephaestusC;weapons_short;1 TAG, 1 CHSL, 1 CLRM15
CL_HephaestusD;weapons_short;2 CUAC5, 2 Mgun
CL_HephaestusE;weapons_short;2 CHML, 1 CDSRM4
CL_HephaestusF;weapons_short;2 CLBX5, 2 CERSBL
CL_HephaestusG;weapons_short;2 CERMBL, 1 ATM6
CL_HuitzilopochtliPrime;weapons_short;1 CArrowIV, 2 CUAC5, 4 CUAC2
CL_HuitzilopochtliA;weapons_short;2 CArrowIV, 2 CLBX10
CL_HuitzilopochtliB;weapons_short;6 CLPL
CL_HuitzilopochtliC;weapons_short;2 CArrowIV, 6 CERMBL
CL_HuitzilopochtliD;weapons_short;2 CArrowIV, 2 CGauss, 2 Mgun
CL_HuitzilopochtliE;weapons_short;1 CArrowIV, 1 CHLL, 2 CUAC5, 1 ATM12
CL_LokiPrime;weapons_short;1 CSSRM6, 2 CERPPC, 3 CERMBL, 2 Mgun
CL_LokiA;weapons_short;1 CLRM15, 2 CERLBL, 2 Mgun, 2 CUAC5
CL_LokiB;weapons_short;2 CHLL, 2 Mgun, 1 CUAC20
CL_LokiC;weapons_short;1 CDSRM6, 2 CLBX10, 3 CERMBL, 2 Mgun
CL_LokiD;weapons_short;1 CDSSRM6, 4 CHML, 2 CERSBL
CL_LokiE;weapons_short;1 CSSRM6, 2 CUAC10, 2 CERMBL, 2 Mgun
CL_LokiF;weapons_short;2 CERLBL, 3 CMPL, 2 CSPL, 1 CLBX20
CL_LokiG;weapons_short;2 CLBX5, 2 CLBX2, 3 CSPL, 1 CGauss
CL_MKIIPrime;weapons_short;2 CLRM10, 4 CERMBL, 2 CGauss
CL_MKIIA;weapons_short;2 CLBX20, 2 CERMBL, 1 CLBX10
CL_MKIIB;weapons_short;2 CSSRM6, 2 CUAC20
CL_MKIIC;weapons_short;2 CArrowIV, 4 CERSBL, 2 CERLBL
CL_MKIID;weapons_short;2 ATM12, 6 CHSL, 2 CERLBL
CL_MKIIE;weapons_short;2 CLRM15, 4 CUAC5
CL_MKIIF;weapons_short;4 Mgun, 4 CERSBL, 2 CLPL, 1 CERPPC, 1 CLBX10
CL_MKIIG;weapons_short;4 CSPL, 2 CERPPC, 2 CLBX10
CL_MadcatPrime;weapons_short;2 CLRM20, 2 CERLBL, 2 CERMBL, 1 CMPL, 2 Mgun
CL_MadcatA;weapons_short;2 CERPPC, 2 CUAC10
CL_MadcatB;weapons_short;2 CERLBL, 4 CERMBL, 2 Mgun, 1 CGauss
CL_MadcatC;weapons_short;2 CSSRM6, 2 CLPL, 4 CHML
CL_MadcatD;weapons_short;2 CLRM15, 2 CHLL, 2 Mgun
CL_MadcatE;weapons_short;2 ATM12, 2 CERPPC
CL_MadcatF;weapons_short;2 CDSRM4, 2 CLBX10, 6 Flamer
CL_MadcatG;weapons_short;1 CDSRM4, 2 CHML, 4 CHSL, 2 CLBX5, 1 CLBX20
CL_MasakariPrime;weapons_short;4 CERPPC, 1 CLRM10
CL_MasakariA;weapons_short;6 CERMBL, 1 CSRM6, 1 cNARC, 1 CGauss
CL_MasakariB;weapons_short;4 CERMBL, 2 CERPPC, 2 CLRM5, 1 CLRM15
CL_MasakariC;weapons_short;4 CHML, 2 CLBX10, 4 CERSBL, 1 CSSRM4
CL_MasakariD;weapons_short;2 CLPL, 2 CERMBL, 2 CSRM6, 1 CUAC20
CL_MasakariE;weapons_short;4 CERMBL, 2 CERLBL, 3 CSSRM6
CL_MasakariF;weapons_short;2 CHLL, 2 CUAC5, 1 ATM12
CL_MasakariG;weapons_short;4 CLBX5, 2 CERLBL, 4 CERSBL, 1 CSRM4
CL_MorriguPrime;weapons_short;3 CERLBL, 2 CLRM15
CL_MorriguA;weapons_short;3 CLPL, 2 CLRM10
CL_MorriguB;weapons_short;3 CHLL
CL_MorriguC;weapons_short;3 CERPPC, 2 ATM3
CL_MorriguD;weapons_short;3 CLBX10, 2 ATM6
CL_MorriguE;weapons_short;3 CUAC10, 2 CSRM4
CL_NovacatPrime;weapons_short;2 CERPPC, 3 CERLBL
CL_NovacatA;weapons_short;6 CERLBL
CL_NovacatB;weapons_short;4 CLPL
CL_NovacatC;weapons_short;2 CLPL, 1 CLBX5, 2 CUAC5
CL_NovacatD;weapons_short;2 CHLL, 2 CLPL
CL_NovacatE;weapons_short;2 CERPPC, 1 CUAC20
CL_OroPrime;weapons_short;1 CLBX20, 1 CLPL, 2 CERSBL
CL_OroA;weapons_short;1 CGauss, 1 CERPPC, 2 CERSBL
CL_OroB;weapons_short;1 CUAC20, 1 CHLL, 2 CERSBL
CL_OroC;weapons_short;1 CLBX20, 1 CLBX10, 2 Flamer
CL_OroD;weapons_short;1 CGauss, 1 CHLL, 2 Mgun
CL_OroE;weapons_short;2 CERPPC, 2 CERSBL
CL_PumaPrime;weapons_short;2 Flamer, 2 CERPPC
CL_PumaA;weapons_short;2 CHML, 1 CUAC10
CL_PumaB;weapons_short;2 Mgun, 1 CLBX10, 4 CERSBL, 1 CUAC5
CL_PumaC;weapons_short;2 Mgun, 6 CERMBL
CL_PumaD;weapons_short;4 CHSL, 2 CHML
CL_PumaE;weapons_short;1 ATM12, 2 Mgun, 1 CHLL
CL_ShadowcatPrime;weapons_short;2 CERMBL, 1 CGauss
CL_ShadowcatA;weapons_short;3 CERSBL, 1 CUAC20
CL_ShadowcatB;weapons_short;3 CERSBL, 1 CLBX20
CL_ShadowcatC;weapons_short;1 CGauss, 1 CERPPC
CL_ShadowcatD;weapons_short;1 cNARC, 2 CERLBL, 2 CERMBL
CL_ShadowcatE;weapons_short;3 CMPL, 1 CHLL
CL_ShadowcatF;weapons_short;3 CLBX5, 2 CERMBL
CL_ShadowcatG;weapons_short;1 CSRM6, 3 CHML, 1 CLBX10
CL_SolitairePrime;weapons_short;3 CHSL, 1 CHLL
CL_SolitaireA;weapons_short;4 CERSBL, 1 CERLBL, 1 CERMBL
CL_SolitaireB;weapons_short;5 Flamer, 1 CLBX5
CL_SolitaireC;weapons_short;3 CHSL, 1 CUAC5
CL_SolitaireD;weapons_short;4 Mgun, 1 CLBX20
CL_SolitaireE;weapons_short;3 CERSBL, 2 Mgun, 1 CERPPC
CL_SolitaireF;weapons_short;3 CSPL, 2 CMPL
CL_SolitaireG;weapons_short;2 CERSBL, 1 CUAC10
CL_RyokenPrime;weapons_short;3 CERMBL, 2 CERLBL
CL_RyokenA;weapons_short;4 CMPL, 1 CLRM15, 1 CDSRM6
CL_RyokenB;weapons_short;4 CERMBL, 1 CUAC20
CL_RyokenC;weapons_short;4 CERSBL, 2 CERMBL, 2 ATM9
CL_RyokenD;weapons_short;4 Mgun, 2 CERLBL, 2 CLRM15
CL_RyokenE;weapons_short;1 CUAC10, 1 CLPL, 2 CSRM4
CL_SullaPrime;weapons_short;2 CERSBL, 1 CERPPC, 2 CERLBL
CL_SullaA;weapons_short;4 CERLBL
CL_SullaB;weapons_short;2 CSSRM6, 2 Mgun, 2 CLBX5
CL_SullaC;weapons_short;2 FireBomb
CL_SullaD;weapons_short;2 CSSRM6, 2 CUAC5
CL_SullaE;weapons_short;2 CeATM6, 2 CLBX2, 2 CERMBL
CL_SullaF;weapons_short;2 CLRM10, 1 cNARC, 2 CERLBL
CL_SullaG;weapons_short;1 CeATM12, 2 CUAC2
CL_SullaH;weapons_short;2 Mgun, 3 CERMBL, 1 CUAC10
CL_SullaI;weapons_short;2 ERSBL, 1 CERPPC, 1 CLBX10
CL_ThorPrime;weapons_short;1 CLRM20, 1 CERPPC, 1 CLBX10
CL_ThorA;weapons_short;1 CDSRM6, 1 CLPL, 1 CUAC20
CL_ThorB;weapons_short;1 ATM9, 1 CHLL, 1 CGauss
CL_ThorC;weapons_short;1 CLRM20, 2 CERLBL, 1 CERPPC
CL_ThorD;weapons_short;1 CDSRM6, 2 CMPL, 1 CLBX20
CL_ThorE;weapons_short;2 CERPPC, 1 CGauss
CL_ThorF;weapons_short;1 CDSSRM6, 1 CHLL, 1 CLBX20
CL_ThorG;weapons_short;1 ATM12, 3 CERLBL
CL_UllerPrime;weapons_short;1 CSRM6, 2 CERSBL, 1 CLBX5, 1 CERLBL
CL_UllerA;weapons_short;1 CGauss, 2 CERMBL
CL_UllerB;weapons_short;1 CDSRM4, 3 CSPL, 1 CLBX10
CL_UllerC;weapons_short;2 Mgun, 4 CMPL
CL_UllerD;weapons_short;1 CSSRM4, 2 CLBX2, 1 CERPPC
CL_UllerE;weapons_short;2 Mgun, 1 CERLBL, 2 CUAC5
CL_UllerF;weapons_short;2 CSPL, 2 CUAC2, 2 CMPL
CL_UllerG;weapons_short;1 CSRM6, 2 CHSL, 1 CUAC10
CL_VisigothPrime;weapons_short;4 CERMBL, 1 CLBX10, 2 CSSRM6
CL_VisigothA;weapons_short;2 CERMBL, 1 CERPPC, 2 FireBomb
CL_VisigothB;weapons_short;2 Mgun, 1 CUAC5, 2 CGauss
CL_VisigothC;weapons_short;1 CUAC2, 1 cNARC, 4 CLRM10
CL_VisigothD;weapons_short;2 CUAC5, 1 TAG, 4 ATM6
CL_VisigothE;weapons_short;3 CUAC5, 4 CSSRM4
CL_VisigothF;weapons_short;3 CERPPC, 2 CeATM3
CL_VisigothG;weapons_short;2 CHML, 1 CUAC20, 2 CDSSRM4
CL_VisigothH;weapons_short;2 CMPL, 4 CeATM9
CL_VisigothI;weapons_short;3 CERLBL, 2 ATM9
CL_VulturePrime;weapons_short;2 CLRM15, 2 CLPL, 2 CMPL
CL_VultureA;weapons_short;2 CSSRM2, 2 CGauss
CL_VultureB;weapons_short;2 CDSSRM4, 2 CDSSRM6
CL_VultureC;weapons_short;2 CLRM15, 2 CLRM20
CL_VultureD;weapons_short;2 ATM9, 2 CERLBL
CL_VultureE;weapons_short;2 CDSRM6, 2 CHML, 2 CMPL
CL_VultureF;weapons_short;2 CDSSRM4, 1 CERPPC, 1 CLBX10
CL_VultureG;weapons_short;2 CLRM20, 2 CUAC5, 2 CSPL
IS_AtlasPrime;weapons_short;1 Gauss, 2 ERLBL, 2 MPL, 2 LRM10
IS_AtlasA;weapons_short;3 RAC5, 2 DSRM4
IS_AtlasB;weapons_short;1 HGauss, 2 PPC, 2 SRM6
IS_AtlasC;weapons_short;1 LBX20, 4 MPL, 1 DSRM6, 1 DSRM4
IS_AtlasD;weapons_short;1 AC20, 4 MBL, 1 DSRM6, 1 LRM20
IS_AtlasE;weapons_short;1 iNARC, 2 ERLBL, 2 ERMBL, 2 LRM15
IS_AvatarPrime;weapons_short;2 LRM10, 2 MBL, 2 Mgun, 1 LBX10, 2 MXPL
IS_AvatarA;weapons_short;2 LRM5, 2 ERMBL, 2 Mgun, 1 Gauss, 1 ERPPC
IS_AvatarB;weapons_short;5 ERMBL, 3 ERLBL
IS_AvatarC;weapons_short;2 SSRM6, 2 MBL, 2 RAC5
IS_AvatarD;weapons_short;2 DSRM4, 4 MBL, 1 AC20
IS_AvatarE;weapons_short;2 MRM20, 2 MPL, 2 LBL
IS_AvatarF;weapons_short;1 LRM15, 1 SRM6, 4 ERMBL, 1 UAC10
IS_AvatarG;weapons_short;2 SRM2, 2 MBL, 2 RAC2, 2 PPC
IS_AwesomePrime;weapons_short;3 ERPPC, 1 LBL
IS_AwesomeA;weapons_short;6 ERLBL
IS_AwesomeB;weapons_short;2 LPL, 2 AC10
IS_AwesomeC;weapons_short;4 PPC
IS_AwesomeD;weapons_short;3 LXPL, 1 LBL
IS_AwesomeE;weapons_short;2 ERPPC, 2 LtGauss
IS_BushwackerPrime;weapons_short;2 LRM10, 2 Mgun, 1 ERLBL, 1 AC10
IS_BushwackerA;weapons_short;1 SRM4, 2 Mgun, 1 ERMBL, 2 RAC5
IS_BushwackerB;weapons_short;1 SRM6, 1 SRM6, 2 SPL, 1 MPL, 1 LBX20
IS_BushwackerC;weapons_short;2 LRM15, 2 Mgun, 2 ERLBL
IS_BushwackerD;weapons_short;2 SSRM4, 1 LXPL, 2 MXPL
IS_BushwackerE;weapons_short;1 SRM4, 1 Gauss, 1 ERPPC
IS_BushwackerF;weapons_short;1 MRM30, 2 LBL, 2 ERMBL
IS_BushwackerG;weapons_short;1 SRM6, 2 Mgun, 1 MPL, 1 AC20, 1 PPC
IS_CatapultPrime;weapons_short;2 LRM20, 4 MBL
IS_CatapultA;weapons_short;4 ERMBL, 2 ERPPC
IS_CatapultB;weapons_short;2 MRM30, 4 ERSBL
IS_CatapultC;weapons_short;2 ArrowIV, 2 SBL, 2 Mgun
IS_CatapultD;weapons_short;2 DSRM6, 4 MXPL
IS_CatapultE;weapons_short;2 ELRM15, 4 MBL
IS_ChevalierPrime;weapons_short;1 ERPPC, 1 SSRM4
IS_ChevalierA;weapons_short;1 LPL, 3 SXPL
IS_ChevalierB;weapons_short;1 LBX10, 1 TAG, 2 SBL
IS_ChevalierC;weapons_short;1 LBL, 1 UAC5
IS_ChevalierD;weapons_short;1 LXPL, 1 MXPL
IS_ChevalierE;weapons_short;1 AC10, 3 SPL
IS_ChimeraPrime;weapons_short;1 MRM20, 2 Mgun, 1 ERLBL, 2 ERMBL
IS_ChimeraA;weapons_short;1 LRM15, 1 ERPPC, 2 MBL
IS_ChimeraB;weapons_short;1 DSSRM4, 4 SBL, 2 MXPL
IS_ChimeraC;weapons_short;1 MRM30, 4 SBL, 1 PPC
IS_ChimeraD;weapons_short;1 ELRM15, 1 LtGauss, 2 Mgun
IS_ChimeraE;weapons_short;1 DSRM6, 5 SXPL, 2 MBL
IS_CorsairPrime;weapons_short;2 ERMBL, 2 ERLBL
IS_CorsairA;weapons_short;2 Thunderbolt15, 1 TAG
IS_CorsairB;weapons_short;2 FireBomb, 2 Mgun
IS_CorsairC;weapons_short;2 AC2, 2 RAC2
IS_CorsairD;weapons_short;2 MRM20, 2 ERMBL
IS_CorsairE;weapons_short;2 LtGauss
IS_CorsairF;weapons_short;2 LRM15, 1 ERMBL, 1 iNARC
IS_CorsairG;weapons_short;2 SSRM4, 2 AC5
IS_CorsairH;weapons_short;1 LBX2, 2 ERPPC
IS_CorsairI;weapons_short;1 SSRM6, 2 ERMBL, 1 LBX10
IS_DemolisherPrime;weapons_short;2 AC20
IS_DemolisherA;weapons_short;2 Gauss
IS_DemolisherB;weapons_short;2 LBX20
IS_DemolisherC;weapons_short;2 RAC5
IS_DemolisherD;weapons_short;1 UAC20, 1 LBX20
IS_DemolisherE;weapons_short;2 UAC10
IS_FafnirPrime;weapons_short;1 MPL, 2 HGauss, 2 ERMBL
IS_FafnirA;weapons_short;2 HGauss, 2 ERPPC
IS_FafnirB;weapons_short;2 iHGauss, 2 MXPL, 4 Mgun
IS_FafnirC;weapons_short;2 iHGauss, 2 ERLBL
IS_FafnirD;weapons_short;2 ERMBL, 2 Gauss, 2 ERLBL
IS_FafnirE;weapons_short;2 MBL, 4 RAC5
IS_FafnirF;weapons_short;10 Flamer, 2 UAC20
IS_FafnirG;weapons_short;4 LBX20
IS_HarasserPrime;weapons_short;2 SSRM6
IS_HarasserA;weapons_short;2 LRM10
IS_HarasserB;weapons_short;4 MBL
IS_HarasserC;weapons_short;6 SXPL
IS_HarasserD;weapons_short;6 Flamer
IS_HarasserE;weapons_short;2 RAC2
IS_HarasserF;weapons_short;1 AC10, 3 SBL
IS_HarasserG;weapons_short;1 ERPPC, 2 ERMBL
IS_HawkmothPrime;weapons_short;1 LtGauss
IS_HawkmothA;weapons_short;2 LRM10, 1 NARC
IS_HawkmothB;weapons_short;2 Mgun, 1 RAC5
IS_HawkmothC;weapons_short;2 Mgun, 1 AC10
IS_HawkmothE;weapons_short;2 Thunderbolt5, 1 RAC2
IS_HawkmothF;weapons_short;2 MRM10, 1 SSRM6
IS_HawkmothG;weapons_short;2 LRM5, 1 LBX5
IS_HawkmothD;weapons_short;2 AC2, 1 NARC
IS_HollanderPrime;weapons_short;1 Gauss, 4 SPL
IS_HollanderA;weapons_short;1 HGauss, 4 SBL
IS_HollanderB;weapons_short;1 UAC20, 2 Flamer, 2 SPL
IS_HollanderC;weapons_short;1 RAC5, 2 UAC2
IS_HollanderD;weapons_short;1 LtGauss, 4 AC2
IS_HollanderE;weapons_short;1 LBX20, 4 LBX2
IS_LongTom;weapons_short;1 LongTom
IS_MaulerPrime;weapons_short;2 LRM15, 2 ERLBL, 4 UAC2
IS_MaulerA;weapons_short;2 ELRM20, 2 LtGauss, 4 Mgun
IS_MaulerB;weapons_short;2 LRM20, 2 ERPPC, 4 AC2
IS_MaulerC;weapons_short;2 DSRM4, 2 UAC20, 4 SBL
IS_MaulerD;weapons_short;2 MRM40, 2 ERPPC, 4 SXPL
IS_MaulerE;weapons_short;2 DSSRM6, 2 LBX20, 4 SPL
IS_MaulerF;weapons_short;2 LRM10, 2 LBL, 4 UAC5
IS_MaulerG;weapons_short;2 MRM20, 2 UAC10, 4 ERMBL
IS_OsirisPrime;weapons_short;1 SRM6, 4 ERMBL
IS_OsirisA;weapons_short;1 ERMBL, 2 ERLBL
IS_OsirisB;weapons_short;1 MRM10, 1 LBX5, 2 MPL
IS_OsirisC;weapons_short;2 Mgun, 2 PPC
IS_OsirisD;weapons_short;1 SSRM4, 3 MXPL
IS_OsirisE;weapons_short;2 ERMBL, 1 LtGauss
IS_OwensPrime;weapons_short;2 LRM15, 2 Mgun, 1 TAG
IS_OwensA;weapons_short;2 ELRM10, 2 SBL
IS_OwensB;weapons_short;2 SSRM6, 2 SBL
IS_OwensC;weapons_short;3 SBL, 4 MBL
IS_OwensD;weapons_short;2 SRM6, 3 SPL
IS_OwensE;weapons_short;2 MRM20
IS_OwensF;weapons_short;1 SSRM6, 3 SPL, 2 MPL
IS_OwensG;weapons_short;2 LBX5, 2 ERMBL
IS_PartisanPrime;weapons_short;4 AC5
IS_PartisanA;weapons_short;4 LBX5
IS_PartisanB;weapons_short;4 RAC2
IS_PartisanC;weapons_short;2 ELRM20
IS_PartisanD;weapons_short;1 MRM30, 2 UAC5
IS_PartisanE;weapons_short;2 Mgun, 4 UAC2
IS_RavenPrime;weapons_short;1 SSRM6, 1 iNARC, 2 MBL
IS_RavenA;weapons_short;1 TAG, 2 MXPL, 2 MBL
IS_RavenB;weapons_short;1 TAG, 1 AC10, 2 SBL
IS_RavenC;weapons_short;1 ERPPC, 2 MBL
IS_RavenD;weapons_short;1 SRM2, 1 ERLBL, 3 ERMBL
IS_RavenE;weapons_short;1 MRM20, 2 MXPL
IS_RiflemanPrime;weapons_short;2 ERMBL, 2 ERLBL, 2 UAC5
IS_RiflemanA;weapons_short;2 Mgun, 4 UAC5
IS_RiflemanB;weapons_short;2 Mgun, 2 LBX10, 2 AC5
IS_RiflemanC;weapons_short;2 LtGauss, 2 ERLBL
IS_RiflemanD;weapons_short;4 RAC2
IS_RiflemanE;weapons_short;4 LPL
IS_ShivaPrime;weapons_short;1 SSRM6, 4 LPL, 1 LBX20
IS_ShivaA;weapons_short;2 ERLBL, 2 HGauss
IS_ShivaB;weapons_short;4 ELRM15, 1 iNARC
IS_ShivaC;weapons_short;4 FireBomb
IS_ShivaD;weapons_short;2 LtGauss, 6 ERMBL, 2 ERPPC
IS_ShivaE;weapons_short;2 Thunderbolt15, 2 Thunderbolt20, 1 TAG
IS_ShivaF;weapons_short;2 LBX10, 2 LBX20
IS_ShivaG;weapons_short;2 MRM40, 2 MRM30
IS_ShivaH;weapons_short;2 LRM10, 2 LBL, 2 Gauss
IS_ShivaI;weapons_short;2 DSSRM6, 2 UAC10, 4 Mgun
IS_SparrowHawkPrime;weapons_short;2 ERSBL, 4 MPL
IS_SparrowHawkA;weapons_short;2 MRM10, 6 ERSBL
IS_SparrowHawkB;weapons_short;4 LBX2
IS_SparrowHawkC;weapons_short;2 Thunderbolt10, 1 TAG
IS_SparrowHawkD;weapons_short;2 LBL
IS_SparrowHawkE;weapons_short;2 DSRM4, 4 ERSBL
IS_SparrowHawkF;weapons_short;4 AC2
IS_SparrowHawkG;weapons_short;2 Thunderbolt5, 2 DSRM4
IS_ThanatosPrime;weapons_short;1 MRM30, 2 ERMBL, 1 ERLBL, 1 MPL
IS_ThanatosA;weapons_short;4 ERMBL, 1 HGauss
IS_ThanatosB;weapons_short;2 ERMBL, 2 ERLBL, 1 Gauss
IS_ThanatosC;weapons_short;1 DSRM4, 3 SBL, 2 Flamer, 1 UAC20
IS_ThanatosD;weapons_short;1 DSRM6, 3 MPL, 1 LBX20
IS_ThanatosE;weapons_short;1 MRM40, 3 ERMBL, 1 ERPPC
IS_ThanatosF;weapons_short;1 LRM20, 2 UAC5, 1 ERPPC
IS_ThanatosG;weapons_short;1 DSSRM4, 3 MXPL, 1 RAC5
IS_UzielPrime;weapons_short;1 SRM6, 2 Mgun, 2 PPC
IS_UzielA;weapons_short;2 Mgun, 2 LtGauss
IS_UzielB;weapons_short;1 SSRM6, 2 Mgun, 1 LBX10, 3 ERMBL
IS_UzielC;weapons_short;2 SBL, 2 LBL, 2 ERMBL
IS_UzielD;weapons_short;1 DSRM4, 1 ERPPC, 3 MPL
IS_UzielE;weapons_short;1 NARC, 2 LPL
IS_WarhammerPrime;weapons_short;1 SRM6, 2 PPC, 2 MPL, 2 SPL
IS_WarhammerA;weapons_short;1 ELRM15, 2 LtGauss, 2 Mgun
IS_WarhammerB;weapons_short;1 MRM30, 2 AC10, 4 Mgun
IS_WarhammerC;weapons_short;1 DSRM6, 2 LBX10, 2 MBL, 2 SBL
IS_WarhammerD;weapons_short;1 LRM15, 1 UAC10, 1 ERPPC, 2 MBL, 2 AC2
IS_WarhammerE;weapons_short;2 ERPPC, 2 ERMBL, 1 Gauss
IS_WarhammerF;weapons_short;2 RAC5, 2 MBL, 1 LBX10
IS_WarhammerG;weapons_short;1 SSRM6, 2 UAC10, 2 ERMBL
